# Blender v2.79 (sub 0) OBJ File: 'bol.blend'
# www.blender.org
o bol_Cube.001
v -0.932883 0.224861 0.000000
v -0.870691 0.224861 0.373153
v -0.937500 0.335294 0.000000
v -0.870691 0.224861 -0.373153
v -0.919033 0.114429 0.000000
v -0.857764 0.114429 0.367613
v -0.875000 0.335294 0.375000
v -0.875000 0.335294 -0.375000
v -0.857764 0.114429 -0.367613
v -0.000000 0.224861 -0.932883
v -0.373153 0.224861 -0.870691
v 0.000000 0.335294 -0.937500
v 0.373153 0.224861 -0.870691
v 0.000000 0.114429 -0.919033
v -0.367613 0.114429 -0.857764
v -0.375000 0.335294 -0.875000
v 0.375000 0.335294 -0.875000
v 0.367613 0.114429 -0.857764
v 0.932883 0.224861 -0.000000
v 0.870691 0.224861 -0.373153
v 0.937500 0.335294 0.000000
v 0.870691 0.224861 0.373153
v 0.919033 0.114429 0.000000
v 0.857764 0.114429 -0.367613
v 0.875000 0.335294 -0.375000
v 0.875000 0.335294 0.375000
v 0.857764 0.114429 0.367613
v 0.000000 0.224861 0.932883
v 0.373153 0.224861 0.870691
v 0.000000 0.335294 0.937500
v -0.373153 0.224861 0.870691
v 0.000000 0.114429 0.919033
v 0.367613 0.114429 0.857764
v 0.375000 0.335294 0.875000
v -0.375000 0.335294 0.875000
v -0.367613 0.114429 0.857764
v 0.000000 -0.547193 0.000000
v 0.000000 -0.543753 -0.240166
v 0.240166 -0.543753 0.000000
v 0.000000 -0.543753 0.240166
v -0.240166 -0.543753 0.000000
v -0.223521 -0.540516 -0.223521
v 0.223521 -0.540516 -0.223521
v 0.223521 -0.540516 0.223521
v -0.223521 -0.540516 0.223521
v 0.000000 0.445726 -0.797286
v 0.000000 0.445726 -0.867393
v -0.318914 0.445726 -0.744133
v 0.000000 0.445726 -0.727179
v 0.318914 0.445726 -0.744133
v 0.346957 0.445726 -0.809567
v -0.346957 0.445726 -0.809567
v -0.290871 0.445726 -0.678700
v 0.290871 0.445726 -0.678700
v 0.553527 -0.164626 0.000000
v 0.592356 -0.067517 0.000000
v 0.516625 -0.164626 -0.221411
v 0.514698 -0.250654 0.000000
v 0.516625 -0.164626 0.221411
v 0.552866 -0.067517 0.236942
v 0.552866 -0.067517 -0.236942
v 0.480385 -0.250654 -0.205879
v 0.480385 -0.250654 0.205879
v 0.797286 0.445726 0.000000
v 0.867393 0.445726 0.000000
v 0.744133 0.445726 -0.318914
v 0.727179 0.445726 0.000000
v 0.744133 0.445726 0.318914
v 0.809567 0.445726 0.346957
v 0.809567 0.445726 -0.346957
v 0.678700 0.445726 -0.290871
v 0.678700 0.445726 0.290871
v -0.797286 0.445726 0.000000
v -0.867393 0.445726 0.000000
v -0.744133 0.445726 0.318914
v -0.727179 0.445726 0.000000
v -0.744133 0.445726 -0.318914
v -0.809567 0.445726 -0.346957
v -0.809567 0.445726 0.346957
v -0.678700 0.445726 0.290871
v -0.678700 0.445726 -0.290871
v 0.000000 0.445726 0.797286
v 0.000000 0.445726 0.867393
v 0.318914 0.445726 0.744133
v 0.000000 0.445726 0.727179
v -0.318914 0.445726 0.744133
v -0.346957 0.445726 0.809567
v 0.346957 0.445726 0.809567
v 0.290871 0.445726 0.678700
v -0.290871 0.445726 0.678700
v 0.000000 -0.396893 0.439052
v 0.000000 -0.367311 0.462926
v 0.175454 -0.396723 0.409671
v 0.000000 -0.413304 0.393318
v -0.175454 -0.396723 0.409671
v -0.185170 -0.367311 0.432064
v 0.185170 -0.367311 0.432064
v 0.156661 -0.412623 0.366652
v -0.156661 -0.412623 0.366652
v -0.553527 -0.164626 0.000000
v -0.592356 -0.067517 0.000000
v -0.516625 -0.164626 0.221411
v -0.514698 -0.250654 0.000000
v -0.516625 -0.164626 -0.221411
v -0.552866 -0.067517 -0.236942
v -0.552866 -0.067517 0.236942
v -0.480385 -0.250654 0.205879
v -0.480385 -0.250654 -0.205879
v 0.000000 -0.164626 0.553527
v 0.000000 -0.067517 0.592356
v 0.221411 -0.164626 0.516625
v 0.000000 -0.250654 0.514698
v -0.221411 -0.164626 0.516625
v -0.236942 -0.067517 0.552866
v 0.236942 -0.067517 0.552866
v 0.205879 -0.250654 0.480385
v -0.205879 -0.250654 0.480385
v 0.000000 -0.164626 -0.553527
v 0.000000 -0.067517 -0.592356
v -0.221411 -0.164626 -0.516625
v 0.000000 -0.250654 -0.514698
v 0.221411 -0.164626 -0.516625
v 0.236942 -0.067517 -0.552866
v -0.236942 -0.067517 -0.552866
v -0.205879 -0.250654 -0.480385
v 0.205879 -0.250654 -0.480385
v 0.000000 -0.428090 0.000000
v 0.000000 -0.426437 -0.168327
v -0.168327 -0.426437 0.000000
v 0.000000 -0.426437 0.168327
v 0.168327 -0.426437 0.000000
v 0.156661 -0.424880 -0.156661
v -0.156661 -0.424880 -0.156661
v -0.156661 -0.424880 0.156661
v 0.156661 -0.424880 0.156661
v 0.000000 -0.396893 -0.439052
v 0.000000 -0.367311 -0.462926
v -0.175454 -0.396723 -0.409671
v 0.000000 -0.413304 -0.393318
v 0.175454 -0.396723 -0.409671
v 0.185170 -0.367311 -0.432064
v -0.185170 -0.367311 -0.432064
v -0.156661 -0.412623 -0.366652
v 0.156661 -0.412623 -0.366652
v 0.439052 -0.396893 0.000000
v 0.462926 -0.367311 0.000000
v 0.409671 -0.396723 -0.175454
v 0.393318 -0.413304 0.000000
v 0.409671 -0.396723 0.175454
v 0.432064 -0.367311 0.185170
v 0.432064 -0.367311 -0.185170
v 0.366652 -0.412623 -0.156661
v 0.366652 -0.412623 0.156661
v -0.439052 -0.396893 0.000000
v -0.462926 -0.367311 0.000000
v -0.409671 -0.396723 0.175454
v -0.393318 -0.413304 0.000000
v -0.409671 -0.396723 -0.175454
v -0.432064 -0.367311 -0.185170
v -0.432064 -0.367311 0.185170
v -0.366652 -0.412623 0.156661
v -0.366652 -0.412623 -0.156661
v 0.000000 -0.488747 0.626433
v 0.250336 -0.488393 0.584513
v 0.000000 -0.446544 0.660496
v -0.250336 -0.488393 0.584513
v 0.000000 -0.516439 0.561181
v 0.223521 -0.515022 0.523134
v 0.264198 -0.446544 0.616463
v -0.264198 -0.446544 0.616463
v -0.223521 -0.515022 0.523134
v 0.626433 -0.488747 -0.000000
v 0.584513 -0.488393 -0.250336
v 0.660496 -0.446544 0.000000
v 0.584513 -0.488393 0.250336
v 0.561181 -0.516439 0.000000
v 0.523134 -0.515022 -0.223521
v 0.616463 -0.446544 -0.264198
v 0.616463 -0.446544 0.264198
v 0.523134 -0.515022 0.223521
v -0.000000 -0.488747 -0.626433
v -0.250336 -0.488393 -0.584513
v 0.000000 -0.446544 -0.660496
v 0.250336 -0.488393 -0.584513
v 0.000000 -0.516439 -0.561181
v -0.223521 -0.515022 -0.523134
v -0.264198 -0.446544 -0.616463
v 0.264198 -0.446544 -0.616463
v 0.223521 -0.515022 -0.523134
v -0.626433 -0.488747 0.000000
v -0.584513 -0.488393 0.250336
v -0.660496 -0.446544 0.000000
v -0.584513 -0.488393 -0.250336
v -0.561181 -0.516439 0.000000
v -0.523134 -0.515022 0.223521
v -0.616463 -0.446544 0.264198
v -0.616463 -0.446544 -0.264198
v -0.523134 -0.515022 -0.223521
v 0.000000 0.240429 -0.653836
v 0.000000 0.343077 -0.657071
v -0.261534 0.240429 -0.610247
v 0.000000 0.137780 -0.644128
v 0.261534 0.240429 -0.610247
v 0.262829 0.343077 -0.613267
v -0.262829 0.343077 -0.613267
v -0.257651 0.137780 -0.601186
v 0.257651 0.137780 -0.601186
v 0.000000 0.240429 0.653836
v 0.000000 0.343077 0.657071
v 0.261534 0.240429 0.610247
v 0.000000 0.137780 0.644128
v -0.261534 0.240429 0.610247
v -0.262829 0.343077 0.613267
v 0.262829 0.343077 0.613267
v 0.257651 0.137780 0.601186
v -0.257651 0.137780 0.601186
v -0.653836 0.240429 0.000000
v -0.657071 0.343077 0.000000
v -0.610247 0.240429 0.261534
v -0.644128 0.137780 0.000000
v -0.610247 0.240429 -0.261534
v -0.613267 0.343077 -0.262829
v -0.613267 0.343077 0.262829
v -0.601186 0.137780 0.257651
v -0.601186 0.137780 -0.257651
v 0.653836 0.240429 0.000000
v 0.657071 0.343077 0.000000
v 0.610247 0.240429 -0.261534
v 0.644128 0.137780 0.000000
v 0.610247 0.240429 0.261534
v 0.613267 0.343077 0.262829
v 0.613267 0.343077 -0.262829
v 0.601186 0.137780 -0.257651
v 0.601186 0.137780 0.257651
v 0.000000 -0.211787 0.789764
v 0.315906 -0.211787 0.737113
v 0.000000 -0.106436 0.845165
v -0.315906 -0.211787 0.737113
v 0.000000 -0.306976 0.734363
v 0.293745 -0.306976 0.685406
v 0.338066 -0.106436 0.788821
v -0.338066 -0.106436 0.788821
v -0.293745 -0.306976 0.685406
v 0.789764 -0.211787 -0.000000
v 0.737113 -0.211787 -0.315906
v 0.845165 -0.106436 -0.000000
v 0.737113 -0.211787 0.315906
v 0.734363 -0.306976 -0.000000
v 0.685406 -0.306976 -0.293745
v 0.788821 -0.106436 -0.338066
v 0.788821 -0.106436 0.338066
v 0.685406 -0.306976 0.293745
v -0.000000 -0.211787 -0.789764
v -0.315906 -0.211787 -0.737113
v -0.000000 -0.106436 -0.845165
v 0.315906 -0.211787 -0.737113
v -0.000000 -0.306976 -0.734363
v -0.293745 -0.306976 -0.685406
v -0.338066 -0.106436 -0.788821
v 0.338066 -0.106436 -0.788821
v 0.293745 -0.306976 -0.685406
v -0.789764 -0.211787 0.000000
v -0.737113 -0.211787 0.315906
v -0.845165 -0.106436 0.000000
v -0.737113 -0.211787 -0.315906
v -0.734363 -0.306976 0.000000
v -0.685406 -0.306976 0.293745
v -0.788821 -0.106436 0.338066
v -0.788821 -0.106436 -0.338066
v -0.685406 -0.306976 -0.293745
v -0.410185 -0.530905 -0.206876
v -0.440503 -0.533485 0.000000
v -0.410185 -0.530905 0.206876
v -0.673958 0.114429 0.673958
v -0.684114 0.224861 0.684114
v -0.687500 0.335294 0.687500
v -0.860759 0.421691 0.368897
v -0.922241 0.421691 0.000000
v -0.860759 0.421691 -0.368897
v -0.484363 -0.446544 -0.484363
v -0.459048 -0.488039 -0.459048
v -0.410185 -0.513606 -0.410185
v 0.206876 -0.530905 -0.410185
v 0.000000 -0.533485 -0.440503
v -0.206876 -0.530905 -0.410185
v -0.368897 0.421691 -0.860759
v 0.000000 0.421691 -0.922241
v 0.368897 0.421691 -0.860759
v 0.484363 -0.446544 -0.484363
v 0.459048 -0.488039 -0.459048
v 0.410185 -0.513606 -0.410185
v 0.410185 -0.530905 0.206876
v 0.440503 -0.533485 0.000000
v 0.410185 -0.530905 -0.206876
v 0.860759 0.421691 -0.368897
v 0.922241 0.421691 0.000000
v 0.860759 0.421691 0.368897
v 0.484363 -0.446544 0.484363
v 0.459048 -0.488039 0.459048
v 0.410185 -0.513606 0.410185
v -0.206876 -0.530905 0.410185
v 0.000000 -0.533485 0.440503
v 0.206876 -0.530905 0.410185
v 0.368897 0.421691 0.860759
v 0.000000 0.421691 0.922241
v -0.368897 0.421691 0.860759
v -0.627508 0.423385 0.268932
v -0.672330 0.423385 0.000000
v -0.627508 0.423385 -0.268932
v -0.268932 0.423385 -0.627508
v 0.000000 0.423385 -0.672330
v 0.268932 0.423385 -0.627508
v 0.627508 0.423385 -0.268932
v 0.672330 0.423385 0.000000
v 0.627508 0.423385 0.268932
v 0.268932 0.423385 0.627508
v 0.000000 0.423385 0.672330
v -0.268932 0.423385 0.627508
v -0.636088 0.445726 -0.636088
v -0.584676 0.445726 -0.584676
v -0.533264 0.445726 -0.533264
v 0.533264 0.445726 -0.533264
v 0.584676 0.445726 -0.584676
v 0.636088 0.445726 -0.636088
v 0.533264 0.445726 0.533264
v 0.584676 0.445726 0.584676
v 0.636088 0.445726 0.636088
v -0.636088 0.445726 0.636088
v -0.584676 0.445726 0.584676
v -0.533264 0.445726 0.533264
v -0.450184 -0.320063 0.192936
v -0.482340 -0.320063 0.000000
v -0.450184 -0.320063 -0.192936
v -0.192936 -0.320063 -0.450184
v 0.000000 -0.320063 -0.482340
v 0.192936 -0.320063 -0.450184
v 0.450184 -0.320063 -0.192936
v 0.482340 -0.320063 0.000000
v 0.450184 -0.320063 0.192936
v 0.192936 -0.320063 0.450184
v 0.000000 -0.320063 0.482340
v -0.192936 -0.320063 0.450184
v 0.434395 -0.067517 -0.434395
v 0.405920 -0.164626 -0.405920
v 0.377445 -0.250654 -0.377445
v 0.472361 0.137780 0.472361
v 0.479479 0.240429 0.479479
v 0.481852 0.343077 0.481852
v -0.434395 -0.067517 0.434395
v -0.405920 -0.164626 0.405920
v -0.377445 -0.250654 0.377445
v -0.472361 0.137780 -0.472361
v -0.479479 0.240429 -0.479479
v -0.481852 0.343077 -0.481852
v -0.287489 -0.420260 0.144994
v -0.308738 -0.421500 0.000000
v -0.287489 -0.420260 -0.144994
v -0.144994 -0.420260 -0.287489
v 0.000000 -0.421500 -0.308738
v 0.144994 -0.420260 -0.287489
v 0.287489 -0.420260 -0.144994
v 0.308738 -0.421500 0.000000
v 0.287489 -0.420260 0.144994
v 0.144994 -0.420260 0.287489
v 0.000000 -0.421500 0.308738
v -0.144994 -0.420260 0.287489
v 0.339479 -0.367311 0.339479
v 0.321736 -0.396553 0.321736
v 0.287489 -0.411942 0.287489
v -0.287489 -0.411942 0.287489
v -0.321736 -0.396553 0.321736
v -0.339479 -0.367311 0.339479
v -0.339479 -0.367311 -0.339479
v -0.321736 -0.396553 -0.321736
v -0.287489 -0.411942 -0.287489
v 0.287489 -0.411942 -0.287489
v 0.321736 -0.396553 -0.321736
v 0.339479 -0.367311 -0.339479
v -0.410185 -0.513606 0.410185
v -0.459048 -0.488039 0.459048
v -0.484363 -0.446544 0.484363
v -0.619788 -0.106436 -0.619788
v -0.579161 -0.211787 -0.579161
v -0.538533 -0.306976 -0.538533
v 0.619788 -0.106436 -0.619788
v 0.579161 -0.211787 -0.579161
v 0.538533 -0.306976 -0.538533
v 0.619788 -0.106436 0.619788
v 0.579161 -0.211787 0.579161
v 0.538533 -0.306976 0.538533
v 0.275278 -0.386922 0.642316
v 0.000000 -0.386922 0.688196
v -0.275278 -0.386922 0.642316
v 0.642316 -0.386922 -0.275278
v 0.688196 -0.386922 -0.000000
v 0.642316 -0.386922 0.275278
v -0.275278 -0.386922 -0.642316
v -0.000000 -0.386922 -0.688196
v 0.275278 -0.386922 -0.642316
v -0.642316 -0.386922 0.275278
v -0.688196 -0.386922 0.000000
v -0.642316 -0.386922 -0.275278
v 0.481852 0.343077 -0.481852
v 0.479479 0.240429 -0.479479
v 0.472361 0.137780 -0.472361
v 0.377445 -0.250654 0.377445
v 0.405920 -0.164626 0.405920
v 0.434395 -0.067517 0.434395
v -0.481852 0.343077 0.481852
v -0.479479 0.240429 0.479479
v -0.472361 0.137780 0.472361
v -0.377445 -0.250654 -0.377445
v -0.405920 -0.164626 -0.405920
v -0.434395 -0.067517 -0.434395
v -0.249886 0.035131 -0.583066
v 0.000000 0.035131 -0.624714
v 0.249886 0.035131 -0.583066
v 0.249886 0.035131 0.583066
v 0.000000 0.035131 0.624714
v -0.249886 0.035131 0.583066
v -0.583066 0.035131 0.249886
v -0.624714 0.035131 0.000000
v -0.583066 0.035131 -0.249886
v 0.583066 0.035131 -0.249886
v 0.624714 0.035131 0.000000
v 0.583066 0.035131 0.249886
v -0.538533 -0.306976 0.538533
v -0.579161 -0.211787 0.579161
v -0.619788 -0.106436 0.619788
v -0.687500 0.335294 -0.687500
v -0.684114 0.224861 -0.684114
v -0.673958 0.114429 -0.673958
v 0.687500 0.335294 -0.687500
v 0.684114 0.224861 -0.684114
v 0.673958 0.114429 -0.673958
v 0.687500 0.335294 0.687500
v 0.684114 0.224861 0.684114
v 0.673958 0.114429 0.673958
v 0.356533 0.003997 0.831910
v 0.000000 0.003997 0.891333
v -0.356533 0.003997 0.831910
v 0.831910 0.003997 -0.356533
v 0.891333 0.003997 -0.000000
v 0.831910 0.003997 0.356533
v -0.356533 0.003997 -0.831910
v -0.000000 0.003997 -0.891333
v 0.356533 0.003997 -0.831910
v -0.831910 0.003997 0.356533
v -0.891333 0.003997 0.000000
v -0.831910 0.003997 -0.356533
v -0.348756 -0.525678 0.348756
v -0.676310 0.421691 0.676310
v -0.348756 -0.525678 -0.348756
v -0.676310 0.421691 -0.676310
v 0.348756 -0.525678 0.348756
v 0.676310 0.421691 0.676310
v 0.348756 -0.525678 -0.348756
v 0.676310 0.421691 -0.676310
v -0.493042 0.423385 0.493042
v -0.493042 0.423385 -0.493042
v 0.493042 0.423385 0.493042
v 0.493042 0.423385 -0.493042
v -0.353716 -0.320063 0.353716
v -0.353716 -0.320063 -0.353716
v 0.353716 -0.320063 0.353716
v 0.353716 -0.320063 -0.353716
v -0.244435 -0.417747 0.244435
v -0.244435 -0.417747 -0.244435
v 0.244435 -0.417747 0.244435
v 0.244435 -0.417747 -0.244435
v -0.504677 -0.386922 0.504677
v -0.504677 -0.386922 -0.504677
v 0.504677 -0.386922 -0.504677
v 0.504677 -0.386922 0.504677
v 0.458123 0.035131 -0.458123
v 0.458123 0.035131 0.458123
v -0.458123 0.035131 0.458123
v -0.458123 0.035131 -0.458123
v -0.653644 0.003997 0.653644
v -0.653644 0.003997 -0.653644
v 0.653644 0.003997 -0.653644
v 0.653644 0.003997 0.653644
vn -0.9966 -0.0828 0.0000
vn -0.9831 -0.1831 0.0000
vn -0.9220 -0.1854 0.3398
vn -0.9350 -0.0839 0.3445
vn -0.6944 -0.1889 0.6944
vn -0.7045 -0.0856 0.7045
vn -0.9497 -0.3131 0.0000
vn -0.8900 -0.3166 0.3279
vn -0.6694 -0.3221 0.6694
vn -0.9361 0.0665 0.3453
vn -0.9978 0.0657 0.0000
vn -0.7541 0.5950 0.2780
vn -0.8036 0.5951 0.0000
vn -0.7055 0.0677 0.7055
vn -0.5698 0.5921 0.5698
vn -0.9361 0.0665 -0.3453
vn -0.9350 -0.0839 -0.3445
vn -0.7055 0.0677 -0.7055
vn -0.7045 -0.0856 -0.7045
vn -0.7541 0.5950 -0.2780
vn -0.5698 0.5921 -0.5698
vn -0.9220 -0.1854 -0.3398
vn -0.8900 -0.3166 -0.3279
vn -0.6944 -0.1889 -0.6944
vn -0.6694 -0.3221 -0.6694
vn 0.0000 -0.0828 -0.9966
vn 0.0000 -0.1831 -0.9831
vn -0.3398 -0.1854 -0.9220
vn -0.3445 -0.0839 -0.9350
vn 0.0000 -0.3131 -0.9497
vn -0.3279 -0.3166 -0.8900
vn -0.3453 0.0665 -0.9361
vn 0.0000 0.0657 -0.9978
vn -0.2780 0.5950 -0.7541
vn 0.0000 0.5951 -0.8036
vn 0.3453 0.0665 -0.9361
vn 0.3445 -0.0839 -0.9350
vn 0.7055 0.0677 -0.7055
vn 0.7045 -0.0856 -0.7045
vn 0.2780 0.5950 -0.7541
vn 0.5698 0.5921 -0.5698
vn 0.3398 -0.1854 -0.9220
vn 0.3279 -0.3166 -0.8900
vn 0.6944 -0.1889 -0.6944
vn 0.6694 -0.3221 -0.6694
vn 0.9966 -0.0828 0.0000
vn 0.9831 -0.1831 0.0000
vn 0.9220 -0.1854 -0.3398
vn 0.9350 -0.0839 -0.3445
vn 0.9497 -0.3131 0.0000
vn 0.8900 -0.3166 -0.3279
vn 0.9361 0.0665 -0.3453
vn 0.9978 0.0657 0.0000
vn 0.7541 0.5950 -0.2780
vn 0.8036 0.5951 0.0000
vn 0.9361 0.0665 0.3453
vn 0.9350 -0.0839 0.3445
vn 0.7055 0.0677 0.7055
vn 0.7045 -0.0856 0.7045
vn 0.7541 0.5950 0.2780
vn 0.5698 0.5921 0.5698
vn 0.9220 -0.1854 0.3398
vn 0.8900 -0.3166 0.3279
vn 0.6944 -0.1889 0.6944
vn 0.6694 -0.3221 0.6694
vn 0.0000 -0.0828 0.9966
vn 0.0000 -0.1831 0.9831
vn 0.3398 -0.1854 0.9220
vn 0.3445 -0.0839 0.9350
vn 0.0000 -0.3131 0.9497
vn 0.3279 -0.3166 0.8900
vn 0.3453 0.0665 0.9361
vn 0.0000 0.0657 0.9978
vn 0.2780 0.5950 0.7541
vn 0.0000 0.5951 0.8036
vn -0.3453 0.0665 0.9361
vn -0.3445 -0.0839 0.9350
vn -0.2780 0.5950 0.7541
vn -0.3398 -0.1854 0.9220
vn -0.3279 -0.3166 0.8900
vn 0.0000 -1.0000 0.0000
vn -0.0344 -0.9994 0.0000
vn -0.0365 -0.9987 -0.0365
vn 0.0000 -0.9994 -0.0344
vn -0.0479 -0.9943 -0.0947
vn 0.0000 -0.9951 -0.0987
vn -0.0987 -0.9951 0.0000
vn -0.0947 -0.9943 -0.0479
vn -0.0861 -0.9926 -0.0861
vn 0.0365 -0.9987 -0.0365
vn 0.0344 -0.9994 0.0000
vn 0.0947 -0.9943 -0.0479
vn 0.0987 -0.9951 0.0000
vn 0.0479 -0.9943 -0.0947
vn 0.0861 -0.9926 -0.0861
vn 0.0365 -0.9987 0.0365
vn 0.0000 -0.9994 0.0344
vn 0.0479 -0.9943 0.0947
vn 0.0000 -0.9951 0.0987
vn 0.0947 -0.9943 0.0479
vn 0.0861 -0.9926 0.0861
vn -0.0365 -0.9987 0.0365
vn -0.0947 -0.9943 0.0479
vn -0.0479 -0.9943 0.0947
vn -0.0861 -0.9926 0.0861
vn 0.0000 1.0000 0.0000
vn 0.0765 0.9742 -0.2122
vn 0.0000 0.9742 -0.2255
vn 0.1611 0.9737 -0.1611
vn -0.0765 0.9742 -0.2122
vn -0.1611 0.9737 -0.1611
vn 0.0587 0.9858 0.1571
vn 0.0000 0.9850 0.1726
vn 0.2569 0.6655 0.7007
vn 0.0000 0.6590 0.7521
vn 0.1115 0.9875 0.1115
vn 0.5185 0.6799 0.5185
vn -0.0587 0.9858 0.1571
vn -0.1115 0.9875 0.1115
vn -0.2569 0.6655 0.7007
vn -0.5185 0.6799 0.5185
vn -0.9205 0.3906 0.0000
vn -0.8621 0.3951 -0.3172
vn -0.8829 0.3389 -0.3250
vn -0.9422 0.3349 0.0000
vn -0.9097 0.2452 -0.3352
vn -0.9702 0.2422 0.0000
vn -0.6473 0.4023 -0.6473
vn -0.6636 0.3452 -0.6636
vn -0.6847 0.2498 -0.6847
vn -0.8829 0.3389 0.3250
vn -0.8621 0.3951 0.3172
vn -0.6636 0.3452 0.6636
vn -0.6473 0.4023 0.6473
vn -0.9097 0.2452 0.3352
vn -0.6847 0.2498 0.6847
vn -0.8511 0.4215 0.3131
vn -0.9090 0.4167 0.0000
vn -0.8572 0.4071 0.3152
vn -0.9155 0.4023 0.0000
vn -0.6386 0.4292 0.6386
vn -0.6433 0.4151 0.6433
vn -0.8511 0.4215 -0.3131
vn -0.6386 0.4292 -0.6386
vn -0.8572 0.4071 -0.3152
vn -0.6433 0.4151 -0.6433
vn 0.2122 0.9742 0.0765
vn 0.2255 0.9742 0.0000
vn 0.1611 0.9737 0.1611
vn 0.2122 0.9742 -0.0765
vn -0.1571 0.9858 0.0587
vn -0.1726 0.9850 0.0000
vn -0.7007 0.6655 0.2569
vn -0.7521 0.6590 0.0000
vn -0.1571 0.9858 -0.0587
vn -0.1115 0.9875 -0.1115
vn -0.7007 0.6655 -0.2569
vn -0.5185 0.6799 -0.5185
vn -0.2122 0.9742 -0.0765
vn -0.2255 0.9742 0.0000
vn -0.2122 0.9742 0.0765
vn -0.1611 0.9737 0.1611
vn 0.1571 0.9858 -0.0587
vn 0.1726 0.9850 0.0000
vn 0.7007 0.6655 -0.2569
vn 0.7521 0.6590 0.0000
vn 0.1115 0.9875 -0.1115
vn 0.5185 0.6799 -0.5185
vn 0.1571 0.9858 0.0587
vn 0.7007 0.6655 0.2569
vn -0.0765 0.9742 0.2122
vn 0.0000 0.9742 0.2255
vn 0.0765 0.9742 0.2122
vn -0.0587 0.9858 -0.1571
vn 0.0000 0.9850 -0.1726
vn -0.2569 0.6655 -0.7007
vn 0.0000 0.6590 -0.7521
vn 0.0587 0.9858 -0.1571
vn 0.2569 0.6655 -0.7007
vn 0.0000 0.8045 -0.5940
vn 0.2030 0.8087 -0.5521
vn 0.2976 0.5094 -0.8074
vn 0.0000 0.5040 -0.8637
vn 0.3152 0.4071 -0.8572
vn 0.0000 0.4023 -0.9155
vn 0.4128 0.8119 -0.4128
vn 0.6055 0.5163 -0.6055
vn 0.6433 0.4151 -0.6433
vn -0.2976 0.5094 -0.8074
vn -0.2030 0.8087 -0.5521
vn -0.6055 0.5163 -0.6055
vn -0.4128 0.8119 -0.4128
vn -0.3152 0.4071 -0.8572
vn -0.0785 0.9746 -0.2095
vn 0.0000 0.9739 -0.2268
vn -0.0330 0.9973 -0.0652
vn 0.0000 0.9977 -0.0680
vn -0.1566 0.9752 -0.1566
vn -0.0593 0.9965 -0.0593
vn 0.0785 0.9746 -0.2095
vn 0.1566 0.9752 -0.1566
vn 0.0330 0.9973 -0.0652
vn 0.0593 0.9965 -0.0593
vn 0.9205 0.3906 0.0000
vn 0.8621 0.3951 0.3172
vn 0.8829 0.3389 0.3250
vn 0.9422 0.3349 0.0000
vn 0.9097 0.2452 0.3352
vn 0.9702 0.2422 0.0000
vn 0.6473 0.4023 0.6473
vn 0.6636 0.3452 0.6636
vn 0.6847 0.2498 0.6847
vn 0.8829 0.3389 -0.3250
vn 0.8621 0.3951 -0.3172
vn 0.6636 0.3452 -0.6636
vn 0.6473 0.4023 -0.6473
vn 0.9097 0.2452 -0.3352
vn 0.6847 0.2498 -0.6847
vn 0.8511 0.4215 -0.3131
vn 0.9090 0.4167 0.0000
vn 0.8572 0.4071 -0.3152
vn 0.9155 0.4023 0.0000
vn 0.6386 0.4292 -0.6386
vn 0.8511 0.4215 0.3131
vn 0.6386 0.4292 0.6386
vn 0.8572 0.4071 0.3152
vn 0.6433 0.4151 0.6433
vn 0.0000 0.3906 -0.9205
vn 0.3172 0.3951 -0.8621
vn 0.3250 0.3389 -0.8829
vn 0.0000 0.3349 -0.9422
vn 0.3352 0.2452 -0.9097
vn 0.0000 0.2422 -0.9702
vn -0.3250 0.3389 -0.8829
vn -0.3172 0.3951 -0.8621
vn -0.3352 0.2452 -0.9097
vn -0.3131 0.4215 -0.8511
vn 0.0000 0.4167 -0.9090
vn 0.3131 0.4215 -0.8511
vn 0.0000 0.3906 0.9205
vn -0.3172 0.3951 0.8621
vn -0.3250 0.3389 0.8829
vn 0.0000 0.3349 0.9422
vn -0.3352 0.2452 0.9097
vn 0.0000 0.2422 0.9702
vn 0.3250 0.3389 0.8829
vn 0.3172 0.3951 0.8621
vn 0.3352 0.2452 0.9097
vn 0.3131 0.4215 0.8511
vn 0.0000 0.4167 0.9090
vn 0.3152 0.4071 0.8572
vn 0.0000 0.4023 0.9155
vn -0.3131 0.4215 0.8511
vn -0.3152 0.4071 0.8572
vn -0.0236 0.9997 0.0000
vn -0.0251 0.9994 0.0251
vn 0.0000 0.9997 0.0236
vn -0.0330 0.9973 0.0652
vn 0.0000 0.9977 0.0680
vn -0.0680 0.9977 0.0000
vn -0.0652 0.9973 0.0330
vn -0.0593 0.9965 0.0593
vn 0.0251 0.9994 0.0251
vn 0.0236 0.9997 0.0000
vn 0.0652 0.9973 0.0330
vn 0.0680 0.9977 0.0000
vn 0.0330 0.9973 0.0652
vn 0.0593 0.9965 0.0593
vn 0.0251 0.9994 -0.0251
vn 0.0000 0.9997 -0.0236
vn 0.0652 0.9973 -0.0330
vn -0.0251 0.9994 -0.0251
vn -0.0652 0.9973 -0.0330
vn 0.0000 0.8045 0.5940
vn -0.2030 0.8087 0.5521
vn -0.2976 0.5094 0.8074
vn 0.0000 0.5040 0.8637
vn -0.4128 0.8119 0.4128
vn -0.6055 0.5163 0.6055
vn 0.2976 0.5094 0.8074
vn 0.2030 0.8087 0.5521
vn 0.6055 0.5163 0.6055
vn 0.4128 0.8119 0.4128
vn 0.0785 0.9746 0.2095
vn 0.0000 0.9739 0.2268
vn 0.1566 0.9752 0.1566
vn -0.0785 0.9746 0.2095
vn -0.1566 0.9752 0.1566
vn -0.5940 0.8045 0.0000
vn -0.5521 0.8087 -0.2030
vn -0.8074 0.5094 -0.2976
vn -0.8637 0.5040 0.0000
vn -0.8074 0.5094 0.2976
vn -0.5521 0.8087 0.2030
vn -0.2095 0.9746 0.0785
vn -0.2268 0.9739 0.0000
vn -0.2095 0.9746 -0.0785
vn 0.5940 0.8045 0.0000
vn 0.5521 0.8087 0.2030
vn 0.8074 0.5094 0.2976
vn 0.8637 0.5040 0.0000
vn 0.8074 0.5094 -0.2976
vn 0.5521 0.8087 -0.2030
vn 0.2095 0.9746 -0.0785
vn 0.2268 0.9739 0.0000
vn 0.2095 0.9746 0.0785
vn 0.0000 -0.7898 0.6133
vn 0.0000 -0.9616 0.2742
vn 0.0956 -0.9627 0.2531
vn 0.2097 -0.7953 0.5687
vn 0.1890 -0.9636 0.1890
vn 0.4242 -0.8000 0.4242
vn 0.2931 -0.5303 0.7955
vn 0.0000 -0.5244 0.8514
vn 0.3048 -0.4684 0.8292
vn 0.0000 -0.4631 0.8863
vn 0.5961 -0.5379 0.5961
vn 0.6213 -0.4774 0.6213
vn -0.2931 -0.5303 0.7955
vn -0.2097 -0.7953 0.5687
vn -0.5961 -0.5379 0.5961
vn -0.4242 -0.8000 0.4242
vn -0.3048 -0.4684 0.8292
vn -0.6213 -0.4774 0.6213
vn -0.0956 -0.9627 0.2531
vn -0.1890 -0.9636 0.1890
vn 0.6133 -0.7898 0.0000
vn 0.2742 -0.9616 0.0000
vn 0.2531 -0.9627 -0.0956
vn 0.5687 -0.7953 -0.2097
vn 0.1890 -0.9636 -0.1890
vn 0.4242 -0.8000 -0.4242
vn 0.7955 -0.5303 -0.2931
vn 0.8514 -0.5244 0.0000
vn 0.8292 -0.4684 -0.3048
vn 0.8863 -0.4631 0.0000
vn 0.5961 -0.5379 -0.5961
vn 0.6213 -0.4774 -0.6213
vn 0.7955 -0.5303 0.2931
vn 0.5687 -0.7953 0.2097
vn 0.8292 -0.4684 0.3048
vn 0.2531 -0.9627 0.0956
vn 0.0000 -0.7898 -0.6133
vn 0.0000 -0.9616 -0.2742
vn -0.0956 -0.9627 -0.2531
vn -0.2097 -0.7953 -0.5687
vn -0.1890 -0.9636 -0.1890
vn -0.4242 -0.8000 -0.4242
vn -0.2931 -0.5303 -0.7955
vn 0.0000 -0.5244 -0.8514
vn -0.3048 -0.4684 -0.8292
vn 0.0000 -0.4631 -0.8863
vn -0.5961 -0.5379 -0.5961
vn -0.6213 -0.4774 -0.6213
vn 0.2931 -0.5303 -0.7955
vn 0.2097 -0.7953 -0.5687
vn 0.3048 -0.4684 -0.8292
vn 0.0956 -0.9627 -0.2531
vn -0.6133 -0.7898 0.0000
vn -0.2742 -0.9616 0.0000
vn -0.2531 -0.9627 0.0956
vn -0.5687 -0.7953 0.2097
vn -0.7955 -0.5303 0.2931
vn -0.8514 -0.5244 0.0000
vn -0.8292 -0.4684 0.3048
vn -0.8863 -0.4631 0.0000
vn -0.7955 -0.5303 -0.2931
vn -0.5687 -0.7953 -0.2097
vn -0.8292 -0.4684 -0.3048
vn -0.2531 -0.9627 -0.0956
vn 0.0000 0.0626 0.9980
vn -0.3450 0.0635 0.9364
vn -0.3428 0.1119 0.9327
vn 0.0000 0.1103 0.9939
vn -0.7056 0.0648 0.7056
vn -0.7024 0.1148 0.7024
vn 0.3428 0.1119 0.9327
vn 0.3450 0.0635 0.9364
vn 0.7024 0.1148 0.7024
vn 0.7056 0.0648 0.7056
vn 0.3423 0.1413 0.9289
vn 0.0000 0.1395 0.9902
vn 0.6997 0.1441 0.6997
vn -0.3423 0.1413 0.9289
vn -0.6997 0.1441 0.6997
vn 0.0000 0.0626 -0.9980
vn 0.3450 0.0635 -0.9364
vn 0.3428 0.1119 -0.9327
vn 0.0000 0.1103 -0.9939
vn 0.7056 0.0648 -0.7056
vn 0.7024 0.1148 -0.7024
vn -0.3428 0.1119 -0.9327
vn -0.3450 0.0635 -0.9364
vn -0.7024 0.1148 -0.7024
vn -0.7056 0.0648 -0.7056
vn -0.3423 0.1413 -0.9289
vn 0.0000 0.1395 -0.9902
vn -0.6997 0.1441 -0.6997
vn 0.3423 0.1413 -0.9289
vn 0.6997 0.1441 -0.6997
vn 0.9980 0.0626 0.0000
vn 0.9364 0.0635 0.3450
vn 0.9327 0.1119 0.3428
vn 0.9939 0.1103 0.0000
vn 0.9327 0.1119 -0.3428
vn 0.9364 0.0635 -0.3450
vn 0.9289 0.1413 -0.3423
vn 0.9902 0.1395 0.0000
vn 0.9289 0.1413 0.3423
vn -0.9980 0.0626 0.0000
vn -0.9364 0.0635 -0.3450
vn -0.9327 0.1119 -0.3428
vn -0.9939 0.1103 0.0000
vn -0.9327 0.1119 0.3428
vn -0.9364 0.0635 0.3450
vn -0.9289 0.1413 0.3423
vn -0.9902 0.1395 0.0000
vn -0.9289 0.1413 -0.3423
vn 0.0000 -0.4834 0.8754
vn 0.0000 -0.5016 0.8651
vn 0.2974 -0.5069 0.8090
vn 0.3012 -0.4884 0.8190
vn 0.6059 -0.5154 0.6059
vn 0.6138 -0.4964 0.6138
vn 0.3120 -0.4288 0.8478
vn 0.0000 -0.4242 0.9055
vn 0.6363 -0.4360 0.6363
vn -0.3120 -0.4288 0.8478
vn -0.3012 -0.4884 0.8190
vn -0.6363 -0.4360 0.6363
vn -0.6138 -0.4964 0.6138
vn -0.2974 -0.5069 0.8090
vn -0.6059 -0.5154 0.6059
vn 0.8754 -0.4834 0.0000
vn 0.8651 -0.5016 0.0000
vn 0.8090 -0.5069 -0.2974
vn 0.8190 -0.4884 -0.3012
vn 0.6059 -0.5154 -0.6059
vn 0.6138 -0.4964 -0.6138
vn 0.8478 -0.4288 -0.3120
vn 0.9055 -0.4242 0.0000
vn 0.6363 -0.4360 -0.6363
vn 0.8478 -0.4288 0.3120
vn 0.8190 -0.4884 0.3012
vn 0.8090 -0.5069 0.2974
vn 0.0000 -0.4834 -0.8754
vn 0.0000 -0.5016 -0.8651
vn -0.2974 -0.5069 -0.8090
vn -0.3012 -0.4884 -0.8190
vn -0.6059 -0.5154 -0.6059
vn -0.6138 -0.4964 -0.6138
vn -0.3120 -0.4288 -0.8478
vn 0.0000 -0.4242 -0.9055
vn -0.6363 -0.4360 -0.6363
vn 0.3120 -0.4288 -0.8478
vn 0.3012 -0.4884 -0.8190
vn 0.2974 -0.5069 -0.8090
vn -0.8754 -0.4834 0.0000
vn -0.8651 -0.5016 0.0000
vn -0.8090 -0.5069 0.2974
vn -0.8190 -0.4884 0.3012
vn -0.8478 -0.4288 0.3120
vn -0.9055 -0.4242 0.0000
vn -0.8478 -0.4288 -0.3120
vn -0.8190 -0.4884 -0.3012
vn -0.8090 -0.5069 -0.2974
s 1
f 1//1 5//2 6//3 2//4
f 2//4 6//3 274//5 275//6
f 5//2 449//7 448//8 6//3
f 6//3 448//8 479//9 274//5
f 1//1 2//4 7//10 3//11
f 3//11 7//10 277//12 278//13
f 2//4 275//6 276//14 7//10
f 7//10 276//14 452//15 277//12
f 1//1 3//11 8//16 4//17
f 4//17 8//16 430//18 431//19
f 3//11 278//13 279//20 8//16
f 8//16 279//20 454//21 430//18
f 1//1 4//17 9//22 5//2
f 5//2 9//22 450//23 449//7
f 4//17 431//19 432//24 9//22
f 9//22 432//24 480//25 450//23
f 10//26 14//27 15//28 11//29
f 11//29 15//28 432//24 431//19
f 14//27 446//30 445//31 15//28
f 15//28 445//31 480//25 432//24
f 10//26 11//29 16//32 12//33
f 12//33 16//32 286//34 287//35
f 11//29 431//19 430//18 16//32
f 16//32 430//18 454//21 286//34
f 10//26 12//33 17//36 13//37
f 13//37 17//36 433//38 434//39
f 12//33 287//35 288//40 17//36
f 17//36 288//40 458//41 433//38
f 10//26 13//37 18//42 14//27
f 14//27 18//42 447//43 446//30
f 13//37 434//39 435//44 18//42
f 18//42 435//44 481//45 447//43
f 19//46 23//47 24//48 20//49
f 20//49 24//48 435//44 434//39
f 23//47 443//50 442//51 24//48
f 24//48 442//51 481//45 435//44
f 19//46 20//49 25//52 21//53
f 21//53 25//52 295//54 296//55
f 20//49 434//39 433//38 25//52
f 25//52 433//38 458//41 295//54
f 19//46 21//53 26//56 22//57
f 22//57 26//56 436//58 437//59
f 21//53 296//55 297//60 26//56
f 26//56 297//60 456//61 436//58
f 19//46 22//57 27//62 23//47
f 23//47 27//62 444//63 443//50
f 22//57 437//59 438//64 27//62
f 27//62 438//64 482//65 444//63
f 28//66 32//67 33//68 29//69
f 29//69 33//68 438//64 437//59
f 32//67 440//70 439//71 33//68
f 33//68 439//71 482//65 438//64
f 28//66 29//69 34//72 30//73
f 30//73 34//72 304//74 305//75
f 29//69 437//59 436//58 34//72
f 34//72 436//58 456//61 304//74
f 28//66 30//73 35//76 31//77
f 31//77 35//76 276//14 275//6
f 30//73 305//75 306//78 35//76
f 35//76 306//78 452//15 276//14
f 28//66 31//77 36//79 32//67
f 32//67 36//79 441//80 440//70
f 31//77 275//6 274//5 36//79
f 36//79 274//5 479//9 441//80
f 37//81 41//82 42//83 38//84
f 38//84 42//83 285//85 284//86
f 41//82 272//87 271//88 42//83
f 42//83 271//88 453//89 285//85
f 37//81 38//84 43//90 39//91
f 39//91 43//90 294//92 293//93
f 38//84 284//86 283//94 43//90
f 43//90 283//94 457//95 294//92
f 37//81 39//91 44//96 40//97
f 40//97 44//96 303//98 302//99
f 39//91 293//93 292//100 44//96
f 44//96 292//100 455//101 303//98
f 37//81 40//97 45//102 41//82
f 41//82 45//102 273//103 272//87
f 40//97 302//99 301//104 45//102
f 45//102 301//104 451//105 273//103
f 46//106 50//106 51//107 47//108
f 47//108 51//107 288//40 287//35
f 50//106 323//106 324//109 51//107
f 51//107 324//109 458//41 288//40
f 46//106 47//108 52//110 48//106
f 48//106 52//110 319//111 320//106
f 47//108 287//35 286//34 52//110
f 52//110 286//34 454//21 319//111
f 46//106 48//106 53//112 49//113
f 49//113 53//112 310//114 311//115
f 48//106 320//106 321//116 53//112
f 53//112 321//116 460//117 310//114
f 46//106 49//113 54//118 50//106
f 50//106 54//118 322//119 323//106
f 49//113 311//115 312//120 54//118
f 54//118 312//120 462//121 322//119
f 55//122 59//123 60//124 56//125
f 56//125 60//124 426//126 425//127
f 59//123 407//128 408//129 60//124
f 60//124 408//129 476//130 426//126
f 55//122 56//125 61//131 57//132
f 57//132 61//131 343//133 344//134
f 56//125 425//127 424//135 61//131
f 61//131 424//135 475//136 343//133
f 55//122 57//132 62//137 58//138
f 58//138 62//137 337//139 338//140
f 57//132 344//134 345//141 62//137
f 62//137 345//141 466//142 337//139
f 55//122 58//138 63//143 59//123
f 59//123 63//143 406//144 407//128
f 58//138 338//140 339//145 63//143
f 63//143 339//145 465//146 406//144
f 64//106 68//106 69//147 65//148
f 65//148 69//147 297//60 296//55
f 68//106 326//106 327//149 69//147
f 69//147 327//149 456//61 297//60
f 64//106 65//148 70//150 66//106
f 66//106 70//150 324//109 323//106
f 65//148 296//55 295//54 70//150
f 70//150 295//54 458//41 324//109
f 64//106 66//106 71//151 67//152
f 67//152 71//151 313//153 314//154
f 66//106 323//106 322//119 71//151
f 71//151 322//119 462//121 313//153
f 64//106 67//152 72//155 68//106
f 68//106 72//155 325//156 326//106
f 67//152 314//154 315//157 72//155
f 72//155 315//157 461//158 325//156
f 73//106 77//106 78//159 74//160
f 74//160 78//159 279//20 278//13
f 77//106 320//106 319//111 78//159
f 78//159 319//111 454//21 279//20
f 73//106 74//160 79//161 75//106
f 75//106 79//161 328//162 329//106
f 74//160 278//13 277//12 79//161
f 79//161 277//12 452//15 328//162
f 73//106 75//106 80//163 76//164
f 76//164 80//163 307//165 308//166
f 75//106 329//106 330//167 80//163
f 80//163 330//167 459//168 307//165
f 73//106 76//164 81//169 77//106
f 77//106 81//169 321//116 320//106
f 76//164 308//166 309//170 81//169
f 81//169 309//170 460//117 321//116
f 82//106 86//106 87//171 83//172
f 83//172 87//171 306//78 305//75
f 86//106 329//106 328//162 87//171
f 87//171 328//162 452//15 306//78
f 82//106 83//172 88//173 84//106
f 84//106 88//173 327//149 326//106
f 83//172 305//75 304//74 88//173
f 88//173 304//74 456//61 327//149
f 82//106 84//106 89//174 85//175
f 85//175 89//174 316//176 317//177
f 84//106 326//106 325//156 89//174
f 89//174 325//156 461//158 316//176
f 82//106 85//175 90//178 86//106
f 86//106 90//178 330//167 329//106
f 85//175 317//177 318//179 90//178
f 90//178 318//179 459//168 330//167
f 91//180 95//181 96//182 92//183
f 92//183 96//182 342//184 341//185
f 95//181 371//186 372//187 96//182
f 96//182 372//187 463//188 342//184
f 91//180 92//183 97//189 93//190
f 93//190 97//189 367//191 368//192
f 92//183 341//185 340//193 97//189
f 97//189 340//193 465//146 367//191
f 91//180 93//190 98//194 94//195
f 94//195 98//194 364//196 365//197
f 93//190 368//192 369//198 98//194
f 98//194 369//198 469//199 364//196
f 91//180 94//195 99//200 95//181
f 95//181 99//200 370//201 371//186
f 94//195 365//197 366//202 99//200
f 99//200 366//202 467//203 370//201
f 100//204 104//205 105//206 101//207
f 101//207 105//206 423//208 422//209
f 104//205 413//210 414//211 105//206
f 105//206 414//211 478//212 423//208
f 100//204 101//207 106//213 102//214
f 102//214 106//213 349//215 350//216
f 101//207 422//209 421//217 106//213
f 106//213 421//217 477//218 349//215
f 100//204 102//214 107//219 103//220
f 103//220 107//219 331//221 332//222
f 102//214 350//216 351//223 107//219
f 107//219 351//223 463//188 331//221
f 100//204 103//220 108//224 104//205
f 104//205 108//224 412//225 413//210
f 103//220 332//222 333//226 108//224
f 108//224 333//226 464//227 412//225
f 109//228 113//229 114//230 110//231
f 110//231 114//230 420//232 419//233
f 113//229 350//216 349//215 114//230
f 114//230 349//215 477//218 420//232
f 109//228 110//231 115//234 111//235
f 111//235 115//234 408//129 407//128
f 110//231 419//233 418//236 115//234
f 115//234 418//236 476//130 408//129
f 109//228 111//235 116//237 112//238
f 112//238 116//237 340//193 341//185
f 111//235 407//128 406//144 116//237
f 116//237 406//144 465//146 340//193
f 109//228 112//238 117//239 113//229
f 113//229 117//239 351//223 350//216
f 112//238 341//185 342//184 117//239
f 117//239 342//184 463//188 351//223
f 118//240 122//241 123//242 119//243
f 119//243 123//242 417//244 416//245
f 122//241 344//134 343//133 123//242
f 123//242 343//133 475//136 417//244
f 118//240 119//243 124//246 120//247
f 120//247 124//246 414//211 413//210
f 119//243 416//245 415//248 124//246
f 124//246 415//248 478//212 414//211
f 118//240 120//247 125//249 121//250
f 121//250 125//249 334//251 335//252
f 120//247 413//210 412//225 125//249
f 125//249 412//225 464//227 334//251
f 118//240 121//250 126//253 122//241
f 122//241 126//253 345//141 344//134
f 121//250 335//252 336//254 126//253
f 126//253 336//254 466//142 345//141
f 127//106 131//255 132//256 128//257
f 128//257 132//256 360//258 359//259
f 131//255 362//260 361//261 132//256
f 132//256 361//261 470//262 360//258
f 127//106 128//257 133//263 129//264
f 129//264 133//263 357//265 356//266
f 128//257 359//259 358//267 133//263
f 133//263 358//267 468//268 357//265
f 127//106 129//264 134//269 130//270
f 130//270 134//269 366//202 365//197
f 129//264 356//266 355//271 134//269
f 134//269 355//271 467//203 366//202
f 127//106 130//270 135//272 131//255
f 131//255 135//272 363//273 362//260
f 130//270 365//197 364//196 135//272
f 135//272 364//196 469//199 363//273
f 136//274 140//275 141//276 137//277
f 137//277 141//276 336//254 335//252
f 140//275 377//278 378//279 141//276
f 141//276 378//279 466//142 336//254
f 136//274 137//277 142//280 138//281
f 138//281 142//280 373//282 374//283
f 137//277 335//252 334//251 142//280
f 142//280 334//251 464//227 373//282
f 136//274 138//281 143//284 139//285
f 139//285 143//284 358//267 359//259
f 138//281 374//283 375//286 143//284
f 143//284 375//286 468//268 358//267
f 136//274 139//285 144//287 140//275
f 140//275 144//287 376//288 377//278
f 139//285 359//259 360//258 144//287
f 144//287 360//258 470//262 376//288
f 145//289 149//290 150//291 146//292
f 146//292 150//291 339//145 338//140
f 149//290 368//192 367//191 150//291
f 150//291 367//191 465//146 339//145
f 145//289 146//292 151//293 147//294
f 147//294 151//293 378//279 377//278
f 146//292 338//140 337//139 151//293
f 151//293 337//139 466//142 378//279
f 145//289 147//294 152//295 148//296
f 148//296 152//295 361//261 362//260
f 147//294 377//278 376//288 152//295
f 152//295 376//288 470//262 361//261
f 145//289 148//296 153//297 149//290
f 149//290 153//297 369//198 368//192
f 148//296 362//260 363//273 153//297
f 153//297 363//273 469//199 369//198
f 154//298 158//299 159//300 155//301
f 155//301 159//300 333//226 332//222
f 158//299 374//283 373//282 159//300
f 159//300 373//282 464//227 333//226
f 154//298 155//301 160//302 156//303
f 156//303 160//302 372//187 371//186
f 155//301 332//222 331//221 160//302
f 160//302 331//221 463//188 372//187
f 154//298 156//303 161//304 157//305
f 157//305 161//304 355//271 356//266
f 156//303 371//186 370//201 161//304
f 161//304 370//201 467//203 355//271
f 154//298 157//305 162//306 158//299
f 158//299 162//306 375//286 374//283
f 157//305 356//266 357//265 162//306
f 162//306 357//265 468//268 375//286
f 163//307 167//308 168//309 164//310
f 164//310 168//309 300//311 299//312
f 167//308 302//99 303//98 168//309
f 168//309 303//98 455//101 300//311
f 163//307 164//310 169//313 165//314
f 165//314 169//313 391//315 392//316
f 164//310 299//312 298//317 169//313
f 169//313 298//317 474//318 391//315
f 163//307 165//314 170//319 166//320
f 166//320 170//319 381//321 380//322
f 165//314 392//316 393//323 170//319
f 170//319 393//323 471//324 381//321
f 163//307 166//320 171//325 167//308
f 167//308 171//325 301//104 302//99
f 166//320 380//322 379//326 171//325
f 171//325 379//326 451//105 301//104
f 172//327 176//328 177//329 173//330
f 173//330 177//329 291//331 290//332
f 176//328 293//93 294//92 177//329
f 177//329 294//92 457//95 291//331
f 172//327 173//330 178//333 174//334
f 174//334 178//333 394//335 395//336
f 173//330 290//332 289//337 178//333
f 178//333 289//337 473//338 394//335
f 172//327 174//334 179//339 175//340
f 175//340 179//339 298//317 299//312
f 174//334 395//336 396//341 179//339
f 179//339 396//341 474//318 298//317
f 172//327 175//340 180//342 176//328
f 176//328 180//342 292//100 293//93
f 175//340 299//312 300//311 180//342
f 180//342 300//311 455//101 292//100
f 181//343 185//344 186//345 182//346
f 182//346 186//345 282//347 281//348
f 185//344 284//86 285//85 186//345
f 186//345 285//85 453//89 282//347
f 181//343 182//346 187//349 183//350
f 183//350 187//349 397//351 398//352
f 182//346 281//348 280//353 187//349
f 187//349 280//353 472//354 397//351
f 181//343 183//350 188//355 184//356
f 184//356 188//355 289//337 290//332
f 183//350 398//352 399//357 188//355
f 188//355 399//357 473//338 289//337
f 181//343 184//356 189//358 185//344
f 185//344 189//358 283//94 284//86
f 184//356 290//332 291//331 189//358
f 189//358 291//331 457//95 283//94
f 190//359 194//360 195//361 191//362
f 191//362 195//361 379//326 380//322
f 194//360 272//87 273//103 195//361
f 195//361 273//103 451//105 379//326
f 190//359 191//362 196//363 192//364
f 192//364 196//363 400//365 401//366
f 191//362 380//322 381//321 196//363
f 196//363 381//321 471//324 400//365
f 190//359 192//364 197//367 193//368
f 193//368 197//367 280//353 281//348
f 192//364 401//366 402//369 197//367
f 197//367 402//369 472//354 280//353
f 190//359 193//368 198//370 194//360
f 194//360 198//370 271//88 272//87
f 193//368 281//348 282//347 198//370
f 198//370 282//347 453//89 271//88
f 199//371 203//372 204//373 200//374
f 200//374 204//373 312//120 311//115
f 203//372 404//375 403//376 204//373
f 204//373 403//376 462//121 312//120
f 199//371 200//374 205//377 201//378
f 201//378 205//377 354//379 353//380
f 200//374 311//115 310//114 205//377
f 205//377 310//114 460//117 354//379
f 199//371 201//378 206//381 202//382
f 202//382 206//381 415//248 416//245
f 201//378 353//380 352//383 206//381
f 206//381 352//383 478//212 415//248
f 199//371 202//382 207//384 203//372
f 203//372 207//384 405//385 404//375
f 202//382 416//245 417//244 207//384
f 207//384 417//244 475//136 405//385
f 208//386 212//387 213//388 209//389
f 209//389 213//388 318//179 317//177
f 212//387 410//390 409//391 213//388
f 213//388 409//391 459//168 318//179
f 208//386 209//389 214//392 210//393
f 210//393 214//392 348//394 347//395
f 209//389 317//177 316//176 214//392
f 214//392 316//176 461//158 348//394
f 208//386 210//393 215//396 211//397
f 211//397 215//396 418//236 419//233
f 210//393 347//395 346//398 215//396
f 215//396 346//398 476//130 418//236
f 208//386 211//397 216//399 212//387
f 212//387 216//399 411//400 410//390
f 211//397 419//233 420//232 216//399
f 216//399 420//232 477//218 411//400
f 217//401 221//402 222//403 218//404
f 218//404 222//403 309//170 308//166
f 221//402 353//380 354//379 222//403
f 222//403 354//379 460//117 309//170
f 217//401 218//404 223//405 219//406
f 219//406 223//405 409//391 410//390
f 218//404 308//166 307//165 223//405
f 223//405 307//165 459//168 409//391
f 217//401 219//406 224//407 220//408
f 220//408 224//407 421//217 422//209
f 219//406 410//390 411//400 224//407
f 224//407 411//400 477//218 421//217
f 217//401 220//408 225//409 221//402
f 221//402 225//409 352//383 353//380
f 220//408 422//209 423//208 225//409
f 225//409 423//208 478//212 352//383
f 226//410 230//411 231//412 227//413
f 227//413 231//412 315//157 314//154
f 230//411 347//395 348//394 231//412
f 231//412 348//394 461//158 315//157
f 226//410 227//413 232//414 228//415
f 228//415 232//414 403//376 404//375
f 227//413 314//154 313//153 232//414
f 232//414 313//153 462//121 403//376
f 226//410 228//415 233//416 229//417
f 229//417 233//416 424//135 425//127
f 228//415 404//375 405//385 233//416
f 233//416 405//385 475//136 424//135
f 226//410 229//417 234//418 230//411
f 230//411 234//418 346//398 347//395
f 229//417 425//127 426//126 234//418
f 234//418 426//126 476//130 346//398
f 235//419 239//420 240//421 236//422
f 236//422 240//421 390//423 389//424
f 239//420 392//316 391//315 240//421
f 240//421 391//315 474//318 390//423
f 235//419 236//422 241//425 237//426
f 237//426 241//425 439//71 440//70
f 236//422 389//424 388//427 241//425
f 241//425 388//427 482//65 439//71
f 235//419 237//426 242//428 238//429
f 238//429 242//428 429//430 428//431
f 237//426 440//70 441//80 242//428
f 242//428 441//80 479//9 429//430
f 235//419 238//429 243//432 239//420
f 239//420 243//432 393//323 392//316
f 238//429 428//431 427//433 243//432
f 243//432 427//433 471//324 393//323
f 244//434 248//435 249//436 245//437
f 245//437 249//436 387//438 386//439
f 248//435 395//336 394//335 249//436
f 249//436 394//335 473//338 387//438
f 244//434 245//437 250//440 246//441
f 246//441 250//440 442//51 443//50
f 245//437 386//439 385//442 250//440
f 250//440 385//442 481//45 442//51
f 244//434 246//441 251//443 247//444
f 247//444 251//443 388//427 389//424
f 246//441 443//50 444//63 251//443
f 251//443 444//63 482//65 388//427
f 244//434 247//444 252//445 248//435
f 248//435 252//445 396//341 395//336
f 247//444 389//424 390//423 252//445
f 252//445 390//423 474//318 396//341
f 253//446 257//447 258//448 254//449
f 254//449 258//448 384//450 383//451
f 257//447 398//352 397//351 258//448
f 258//448 397//351 472//354 384//450
f 253//446 254//449 259//452 255//453
f 255//453 259//452 445//31 446//30
f 254//449 383//451 382//454 259//452
f 259//452 382//454 480//25 445//31
f 253//446 255//453 260//455 256//456
f 256//456 260//455 385//442 386//439
f 255//453 446//30 447//43 260//455
f 260//455 447//43 481//45 385//442
f 253//446 256//456 261//457 257//447
f 257//447 261//457 399//357 398//352
f 256//456 386//439 387//438 261//457
f 261//457 387//438 473//338 399//357
f 262//458 266//459 267//460 263//461
f 263//461 267//460 427//433 428//431
f 266//459 401//366 400//365 267//460
f 267//460 400//365 471//324 427//433
f 262//458 263//461 268//462 264//463
f 264//463 268//462 448//8 449//7
f 263//461 428//431 429//430 268//462
f 268//462 429//430 479//9 448//8
f 262//458 264//463 269//464 265//465
f 265//465 269//464 382//454 383//451
f 264//463 449//7 450//23 269//464
f 269//464 450//23 480//25 382//454
f 262//458 265//465 270//466 266//459
f 266//459 270//466 402//369 401//366
f 265//465 383//451 384//450 270//466
f 270//466 384//450 472//354 402//369
